{
    "type": "minecraft:campfire_cooking",
    "ingredient": {
        "item": "zarrowsandstuff:stamella_shroom"
    },
    "result": "zarrowsandstuff:toasty_stamella_shroom",
    "experience": 0.1,
    "cookingtime": 200
}