{
    "type": "minecraft:campfire_cooking",
    "ingredient": {
        "item": "zarrowsandstuff:hydromelon_fruit"
    },
    "result": "zarrowsandstuff:roasted_hydromelon",
    "experience": 0.1,
    "cookingtime": 200
}