{
  "replace": false,
  "values": [
    "minecraft:melon_slice",
    "minecraft:chorus_fruit",
    "minecraft:sweet_berries",
    "zarrowsandstuff:hydromelon_fruit",
    "zarrowsandstuff:spicy_pepper"
  ]
}