{
  "replace": false,
  "values": [
    "#forge:food_meat",
    "#forge:food_meat",
    "#forge:food_meat",
    "#forge:food_meat",
    "#forge:food_allmeat",
    "#forge:food_allmeat",
    "#forge:food_allmeat",
    "#forge:food_allmeat",
    "#forge:food_allmeat",
    "#forge:food_bird",
    "#forge:food_spicy1",
    "#forge:food_chilly1",
    "#forge:food_energizing1",
    "#forge:food_fruit",
    "#forge:food_fruit",
    "#forge:food_fruit2",
    "#forge:food_fruit2",
    "#forge:food_fruit3",
    "#forge:food_fruit3",
    "#forge:food_fruit3",
    "#forge:food_fruit4",
    "#forge:food_fruit4",
    "#forge:food_fruit5",
    "#forge:food_fruit5",
    "#forge:food_fruit5",
    "#forge:food_fruit5",
    "#forge:food_fruit5",
    "#forge:food_wildberry",
    "#forge:food_mushroom",
    "#forge:food_mushroom",
    "#forge:food_mushroom",
    "#forge:food_mushroom",
    "#forge:food_vegetable",
    "#forge:food_vegetable",
    "#forge:food_vegetable",
    "#forge:food_seafood",
    "#forge:food_seafood",
    "#forge:food_seafood",
    "#forge:food_seafood",
    "#forge:food_honey",
    "#forge:food_honey",
    "#forge:food_sugar",
    "#forge:food_sugar"
  ]
}