{
    "type": "minecraft:crafting_shapeless",
    "ingredients": [
        {
            "tag": "zarrowsandstuff:food_fruit2"
        },
		{
            "tag": "zarrowsandstuff:food_fruit2"
        },
		{
            "tag": "zarrowsandstuff:food_spicy1"
        },
		{
            "tag": "zarrowsandstuff:food_spicy1"
        },
		{
            "tag": "zarrowsandstuff:food_spicy1"
        }
    ],
    "result": {
        "item": "zarrowsandstuff:simmered_fruit29",
        "count": 1
    }
}