{
  "type": "minecraft:block",
  "pools": [
    {
      "rolls": 2,
      "entries": [
        {
          "type": "minecraft:item",
          "name": "zarrowsandstuff:ancient_screw",
          "functions": [
            {
              "function": "minecraft:apply_bonus",
              "enchantment": "minecraft:fortune",
              "formula": "minecraft:binomial_with_bonus_count",
              "parameters": {
                "extra": 1,
                "probability": 0.9
              }
            }
          ]
        },
        {
          "type": "minecraft:item",
          "name": "zarrowsandstuff:ancient_shaft",
          "functions": [
            {
              "function": "minecraft:apply_bonus",
              "enchantment": "minecraft:fortune",
              "formula": "minecraft:binomial_with_bonus_count",
              "parameters": {
                "extra": 1,
                "probability": 0.9
              }
            }
          ]
        },
		{
          "type": "minecraft:item",
          "name": "zarrowsandstuff:ancient_screw",
          "functions": [
            {
              "function": "minecraft:apply_bonus",
              "enchantment": "minecraft:fortune",
              "formula": "minecraft:binomial_with_bonus_count",
              "parameters": {
                "extra": 1,
                "probability": 0.9
              }
            }
          ]
        },
        {
          "type": "minecraft:item",
          "name": "zarrowsandstuff:ancient_shaft",
          "functions": [
            {
              "function": "minecraft:apply_bonus",
              "enchantment": "minecraft:fortune",
              "formula": "minecraft:binomial_with_bonus_count",
              "parameters": {
                "extra": 1,
                "probability": 0.9
              }
            }
          ]
        },
		{
          "type": "minecraft:item",
          "name": "zarrowsandstuff:ancient_screw",
          "functions": [
            {
              "function": "minecraft:apply_bonus",
              "enchantment": "minecraft:fortune",
              "formula": "minecraft:binomial_with_bonus_count",
              "parameters": {
                "extra": 1,
                "probability": 0.9
              }
            }
          ]
        },
        {
          "type": "minecraft:item",
          "name": "zarrowsandstuff:ancient_shaft",
          "functions": [
            {
              "function": "minecraft:apply_bonus",
              "enchantment": "minecraft:fortune",
              "formula": "minecraft:binomial_with_bonus_count",
              "parameters": {
                "extra": 1,
                "probability": 0.9
              }
            }
          ]
        },
		{
          "type": "minecraft:item",
          "name": "zarrowsandstuff:ancient_screw",
          "functions": [
            {
              "function": "minecraft:apply_bonus",
              "enchantment": "minecraft:fortune",
              "formula": "minecraft:binomial_with_bonus_count",
              "parameters": {
                "extra": 1,
                "probability": 0.9
              }
            }
          ]
        },
        {
          "type": "minecraft:item",
          "name": "zarrowsandstuff:ancient_shaft",
          "functions": [
            {
              "function": "minecraft:apply_bonus",
              "enchantment": "minecraft:fortune",
              "formula": "minecraft:binomial_with_bonus_count",
              "parameters": {
                "extra": 1,
                "probability": 0.9
              }
            }
          ]
        },
		{
          "type": "minecraft:item",
          "name": "zarrowsandstuff:ancient_screw",
          "functions": [
            {
              "function": "minecraft:apply_bonus",
              "enchantment": "minecraft:fortune",
              "formula": "minecraft:binomial_with_bonus_count",
              "parameters": {
                "extra": 1,
                "probability": 0.9
              }
            }
          ]
        },
        {
          "type": "minecraft:item",
          "name": "zarrowsandstuff:ancient_shaft",
          "functions": [
            {
              "function": "minecraft:apply_bonus",
              "enchantment": "minecraft:fortune",
              "formula": "minecraft:binomial_with_bonus_count",
              "parameters": {
                "extra": 1,
                "probability": 0.9
              }
            }
          ]
        },
		{
          "type": "minecraft:item",
          "name": "zarrowsandstuff:ancient_fragment",
          "functions": [
            {
              "function": "minecraft:apply_bonus",
              "enchantment": "minecraft:fortune",
              "formula": "minecraft:binomial_with_bonus_count",
              "parameters": {
                "extra": 1,
                "probability": 0.9
              }
            }
          ]
        },
		{
          "type": "minecraft:item",
          "name": "zarrowsandstuff:ancient_fragment",
          "functions": [
            {
              "function": "minecraft:apply_bonus",
              "enchantment": "minecraft:fortune",
              "formula": "minecraft:binomial_with_bonus_count",
              "parameters": {
                "extra": 1,
                "probability": 0.5
              }
            }
          ]
        },
		{
          "type": "minecraft:item",
          "name": "zarrowsandstuff:ancient_fragment",
          "functions": [
            {
              "function": "minecraft:apply_bonus",
              "enchantment": "minecraft:fortune",
              "formula": "minecraft:binomial_with_bonus_count",
              "parameters": {
                "extra": 1,
                "probability": 0.5
              }
            }
          ]
        },
		{
          "type": "minecraft:item",
          "name": "zarrowsandstuff:ancient_core"
        }
      ]
    }
  ]
}