{
    "variants": {
		"facing=north":  { "model": "zarrowsandstuff:block/natural/courser_beehive" },
        "facing=east":   { "model": "zarrowsandstuff:block/natural/courser_beehive", "y": 90 },
        "facing=south":   { "model": "zarrowsandstuff:block/natural/courser_beehive", "y": 180 },
        "facing=west":   { "model": "zarrowsandstuff:block/natural/courser_beehive", "y": 270 }
    }
}