{
  "variants": {
    "facing=down": {
      "model": "zarrowsandstuff:block/natural/plants/mighty_bananas_leaves_down"
    },
    "facing=north": {
      "model": "zarrowsandstuff:block/natural/plants/mighty_bananas_leaves_wall"
    },
    "facing=south": {
      "model": "zarrowsandstuff:block/natural/plants/mighty_bananas_leaves_wall",
      "y": 180
    },
    "facing=west": {
      "model": "zarrowsandstuff:block/natural/plants/mighty_bananas_leaves_wall",
      "y": 270
    },
    "facing=east": {
      "model": "zarrowsandstuff:block/natural/plants/mighty_bananas_leaves_wall",
      "y": 90
    },
    "facing=up": {
      "model": "zarrowsandstuff:block/natural/plants/mighty_bananas_leaves_up"
    }
  }
}