{
    "variants": {
		"facing=north":  { "model": "zarrowsandstuff:block/natural/plants/spicy_pepper_plant" },
        "facing=east":   { "model": "zarrowsandstuff:block/natural/plants/spicy_pepper_plant", "y": 90 },
        "facing=south":   { "model": "zarrowsandstuff:block/natural/plants/spicy_pepper_plant", "y": 180 },
        "facing=west":   { "model": "zarrowsandstuff:block/natural/plants/spicy_pepper_plant", "y": 270 }
    }
}