{
    "type": "minecraft:crafting_shapeless",
    "ingredients": [
        {
            "item": "zarrowsandstuff:spicy_pepper"
        },
		{
            "item": "zarrowsandstuff:spicy_pepper"
        },
		{
            "item": "zarrowsandstuff:spicy_pepper"
        }
    ],
    "result": {
        "item": "zarrowsandstuff:sauteed_peppers3",
        "count": 1
    }
}