{
    "type": "minecraft:crafting_shapeless",
    "ingredients": [       
		{
            "item": "zarrowsandstuff:spicy_pepper"
        },
		{
            "item": "zarrowsandstuff:spicy_pepper"
        },
		{
           "item": "zarrowsandstuff:spicy_pepper"
        },
		{
            "tag": "zarrowsandstuff:food_meat"
        },
		{
            "tag": "zarrowsandstuff:food_meat"
        }
    ],
    "result": {
        "item": "zarrowsandstuff:spicy_pepper_steak5",
        "count": 1
    }
}