{
    "type": "minecraft:crafting_shapeless",
    "ingredients": [
        {
            "item": "zarrowsandstuff:ruby"
        },
        {
            "item": "zarrowsandstuff:ruby"
        },
        {
            "item": "zarrowsandstuff:ruby"
        },
        {
            "item": "zarrowsandstuff:ruby"
        },
        {
            "item": "zarrowsandstuff:ruby"
        },
        {
            "item": "zarrowsandstuff:ruby"
        },
        {
            "item": "zarrowsandstuff:ruby"
        },
        {
            "item": "zarrowsandstuff:ruby"
        }
    ],
    "result": {
        "item": "zarrowsandstuff:raw_fire_essence",
        "count": 1
    }
}