{
    "type": "minecraft:crafting_shaped",
    "pattern": [
        "###",
        "#Z#",
        "###"
    ],
    "key": {
        "#": {
            "item": "minecraft:arrow"
        },
        "Z": {
            "item": "zarrowsandstuff:thunder_essence"
        }
    },
    "result": {
        "item": "zarrowsandstuff:shock_arrow",
        "count": 8
    }
}